open_source_fpga_environment/CALCULADORA/Receptor/src/build/keypad_simple_tb.vcd
$date
	Sun May 03 21:36:33 2026
$end
$version
	Icarus Verilog
$end
$timescale
	1s
$end
$scope module keypad_simple_tb $end
$var wire 7 ! seg [6:0] $end
$var wire 4 " col [3:0] $end
$var wire 4 # anode [3:0] $end
$var reg 1 $ clk $end
$var reg 4 % row [3:0] $end
$var reg 1 & rst $end
$scope module dut $end
$var wire 1 $ clk $end
$var wire 4 ' col [3:0] $end
$var wire 4 ( row [3:0] $end
$var wire 1 & rst $end
$var wire 1 ) rst_n $end
$var wire 7 * seg [6:0] $end
$var wire 4 + row_clean [3:0] $end
$var wire 14 , result [13:0] $end
$var wire 12 - num2 [11:0] $end
$var wire 12 . num1 [11:0] $end
$var wire 4 / key_value [3:0] $end
$var wire 1 0 key_valid $end
$var wire 1 1 do_sum $end
$var wire 2 2 display_sel [1:0] $end
$var wire 14 3 display_data [13:0] $end
$var wire 4 4 digit_mux [3:0] $end
$var wire 4 5 d3 [3:0] $end
$var wire 4 6 d2 [3:0] $end
$var wire 4 7 d1 [3:0] $end
$var wire 4 8 d0 [3:0] $end
$var wire 4 9 col_scan [3:0] $end
$var wire 4 : anode [3:0] $end
$scope begin deb_rows[0] $end
$var parameter 2 ; i $end
$scope module DEB $end
$var wire 1 < button_in $end
$var wire 1 $ clk $end
$var wire 1 = q_add $end
$var wire 1 > q_reset $end
$var wire 1 ) rst $end
$var parameter 32 ? N $end
$var reg 1 @ DB_out $end
$var reg 1 A DFF1 $end
$var reg 1 B DFF2 $end
$var reg 19 C q_next [18:0] $end
$var reg 19 D q_reg [18:0] $end
$upscope $end
$upscope $end
$scope begin deb_rows[1] $end
$var parameter 2 E i $end
$scope module DEB $end
$var wire 1 F button_in $end
$var wire 1 $ clk $end
$var wire 1 G q_add $end
$var wire 1 H q_reset $end
$var wire 1 ) rst $end
$var parameter 32 I N $end
$var reg 1 J DB_out $end
$var reg 1 K DFF1 $end
$var reg 1 L DFF2 $end
$var reg 19 M q_next [18:0] $end
$var reg 19 N q_reg [18:0] $end
$upscope $end
$upscope $end
$scope begin deb_rows[2] $end
$var parameter 3 O i $end
$scope module DEB $end
$var wire 1 P button_in $end
$var wire 1 $ clk $end
$var wire 1 Q q_add $end
$var wire 1 R q_reset $end
$var wire 1 ) rst $end
$var parameter 32 S N $end
$var reg 1 T DB_out $end
$var reg 1 U DFF1 $end
$var reg 1 V DFF2 $end
$var reg 19 W q_next [18:0] $end
$var reg 19 X q_reg [18:0] $end
$upscope $end
$upscope $end
$scope begin deb_rows[3] $end
$var parameter 3 Y i $end
$scope module DEB $end
$var wire 1 Z button_in $end
$var wire 1 $ clk $end
$var wire 1 [ q_add $end
$var wire 1 \ q_reset $end
$var wire 1 ) rst $end
$var parameter 32 ] N $end
$var reg 1 ^ DB_out $end
$var reg 1 _ DFF1 $end
$var reg 1 ` DFF2 $end
$var reg 19 a q_next [18:0] $end
$var reg 19 b q_reg [18:0] $end
$upscope $end
$upscope $end
$scope module ADDER $end
$var wire 1 $ clk $end
$var wire 1 ) rst $end
$var wire 10 c num2_bin [9:0] $end
$var wire 12 d num2 [11:0] $end
$var wire 10 e num1_bin [9:0] $end
$var wire 12 f num1 [11:0] $end
$var wire 1 1 do_sum $end
$var reg 14 g result [13:0] $end
$upscope $end
$scope module DECODER $end
$var wire 1 $ clk $end
$var wire 4 h row [3:0] $end
$var wire 1 ) rst $end
$var wire 4 i col [3:0] $end
$var reg 4 j col_latched [3:0] $end
$var reg 1 0 key_valid $end
$var reg 4 k key_value [3:0] $end
$var reg 4 l row_prev [3:0] $end
$var reg 1 m was_valid $end
$upscope $end
$scope module FSM $end
$var wire 1 $ clk $end
$var wire 1 0 key_valid $end
$var wire 4 n key_value [3:0] $end
$var wire 1 ) rst $end
$var parameter 4 o KEY_A $end
$var parameter 4 p KEY_HASH $end
$var parameter 4 q KEY_STAR $end
$var reg 2 r display_sel [1:0] $end
$var reg 1 1 do_sum $end
$var reg 2 s next_state [1:0] $end
$var reg 12 t num1 [11:0] $end
$var reg 12 u num2 [11:0] $end
$var reg 2 v state [1:0] $end
$upscope $end
$scope module MUX $end
$var wire 1 $ clk $end
$var wire 4 w digit0 [3:0] $end
$var wire 4 x digit1 [3:0] $end
$var wire 4 y digit2 [3:0] $end
$var wire 4 z digit3 [3:0] $end
$var wire 1 ) rst $end
$var parameter 32 { MAX_COUNT $end
$var reg 4 | anode [3:0] $end
$var reg 15 } counter [14:0] $end
$var reg 4 ~ digit_out [3:0] $end
$var reg 2 !" sel [1:0] $end
$upscope $end
$scope module SCANNER $end
$var wire 1 $ clk $end
$var wire 1 ) rst $end
$var parameter 32 "" MAX_COUNT $end
$var reg 4 #" col_scan [3:0] $end
$var reg 15 $" counter [14:0] $end
$upscope $end
$scope module SEG $end
$var wire 4 %" digit [3:0] $end
$var reg 7 &" seg [6:0] $end
$upscope $end
$upscope $end
$upscope $end
$enddefinitions $end
$comment Show the parameter values. $end
$dumpall
b110100101111000 ""
b110100101111000 {
b1110 q
b1101 p
b1010 o
b10011 ]
b11 Y
b10011 S
b10 O
b10011 I
b1 E
b10011 ?
b0 ;
$end
#0
$dumpvars
b0 &"
bx %"
bx $"
bx #"
bx !"
bx ~
bx }
bx |
b0xx z
bx y
bx x
bx w
bx v
bx u
bx t
bx s
bx r
bx n
xm
bx l
bx k
bx j
bx i
bx h
bx g
bx f
bx e
bx d
bx c
bx b
b0 a
x`
x_
x^
x\
x[
1Z
bx X
b0 W
xV
xU
xT
xR
xQ
1P
bx N
b0 M
xL
xK
xJ
xH
xG
1F
bx D
b0 C
xB
xA
x@
x>
x=
1<
bx :
bx 9
bx 8
bx 7
bx 6
b0xx 5
bx 4
bx 3
bx 2
x1
x0
bx /
bx .
bx -
bx ,
bx +
b0 *
0)
b1111 (
bx '
1&
b1111 %
0$
bx #
bx "
b0 !
$end
#19
b1 C
b1 M
b1 W
b1 a
1=
1G
1Q
1[
b0 8
b0 w
b0 7
b0 x
b0 6
b0 y
b0 5
b0 z
0>
0H
0R
0\
b0 s
b0 c
b0 e
b0 3
b0 D
0B
0A
0@
b0 N
0L
0K
0J
b0 X
0V
0U
0T
b0 b
0`
0_
b0 +
b0 h
0^
b1 "
b1 '
b1 9
b1 i
b1 #"
b0 $"
0m
b0 /
b0 k
b0 n
00
b0 l
b0 j
b0 v
b0 2
b0 r
01
b0 -
b0 d
b0 u
b0 .
b0 f
b0 t
b0 ,
b0 g
1$
#38
0$
#57
1$
#76
0$
#95
1$
#114
0$
#133
1$
#152
0$
#171
1$
#190
0$
#209
1$
#228
0$
#247
1$
#266
0$
#285
1$
#304
0$
#323
1$
#342
0$
#361
1)
0&
1$
#380
0$
#399
b0 C
1>
b0 M
1H
b0 W
1R
b0 a
1\
b1111110 !
b1111110 *
b1111110 &"
b1 D
1A
b1 N
1K
b1 X
1U
b1 b
1_
b1 $"
b0 4
b0 ~
b0 %"
b1 #
b1 :
b1 |
b0 !"
b0 }
1$
#418
0$
#437
b1 a
0\
b1 W
0R
b1 M
0H
b1 C
0>
b10 $"
b0 b
1`
b0 X
1V
b0 N
1L
b0 D
1B
1$
#456
0$
#475
b10 C
b10 M
b10 W
b10 a
b1 D
b1 N
b1 X
b1 b
b11 $"
1$
#494
0$
#513
b11 a
b11 W
b11 M
b11 C
b100 $"
b10 b
b10 X
b10 N
b10 D
1$
#532
0$
#551
b100 C
b100 M
b100 W
b100 a
b11 D
b11 N
b11 X
b11 b
b101 $"
1$
#570
0$
#589
b101 a
b101 W
b101 M
b101 C
b110 $"
b100 b
b100 X
b100 N
b100 D
1$
#608
0$
#627
b110 C
b110 M
b110 W
b110 a
b101 D
b101 N
b101 X
b101 b
b111 $"
1$
#646
0$
#665
b111 a
b111 W
b111 M
b111 C
b1000 $"
b110 b
b110 X
b110 N
b110 D
1$
#684
0$
#703
b1000 C
b1000 M
b1000 W
b1000 a
b111 D
b111 N
b111 X
b111 b
b1001 $"
1$
#722
0$
#741
b1001 a
b1001 W
b1001 M
b1001 C
b1010 $"
b1000 b
b1000 X
b1000 N
b1000 D
1$
#760
0$
#779
b1010 C
b1010 M
b1010 W
b1010 a
b1001 D
b1001 N
b1001 X
b1001 b
b1011 $"
1$
#798
0$
#817
b1011 a
b1011 W
b1011 M
b1011 C
b1100 $"
b1010 b
b1010 X
b1010 N
b1010 D
1$
#836
0$
#855
b1100 C
b1100 M
b1100 W
b1100 a
b1011 D
b1011 N
b1011 X
b1011 b
b1101 $"
1$
#874
0$
#893
b1101 a
b1101 W
b1101 M
b1101 C
b1110 $"
b1100 b
b1100 X
b1100 N
b1100 D
1$
#912
0$
#931
b1110 C
b1110 M
b1110 W
b1110 a
b1101 D
b1101 N
b1101 X
b1101 b
b1111 $"
1$
#950
0$
#969
b1111 a
b1111 W
b1111 M
b1111 C
b10000 $"
b1110 b
b1110 X
b1110 N
b1110 D
1$
#988
0$
#1007
b10000 C
b10000 M
b10000 W
b10000 a
b1111 D
b1111 N
b1111 X
b1111 b
b10001 $"
1$
#1026
0$
#1045
b10001 a
b10001 W
b10001 M
b10001 C
b10010 $"
b10000 b
b10000 X
b10000 N
b10000 D
1$
#1064
0$
#1083
b10010 C
b10010 M
b10010 W
b10010 a
b10001 D
b10001 N
b10001 X
b10001 b
b10011 $"
1$
#1102
0$
#1121
b10011 a
b10011 W
b10011 M
b10011 C
b10100 $"
b10010 b
b10010 X
b10010 N
b10010 D
0F
0P
0Z
b1 %
b1 (
1$
#1140
0$
#1159
b10100 C
b0 M
1H
b0 W
1R
b0 a
1\
b10011 D
b10011 N
0K
b10011 X
0U
b10011 b
0_
b10101 $"
1$
#1178
0$
#1197
b1 a
0\
b1 W
0R
b1 M
0H
b10101 C
b10110 $"
b0 b
0`
b0 X
0V
b0 N
0L
b10100 D
1$
#1216
0$
#1235
b10110 C
b10 M
b10 W
b10 a
b10101 D
b1 N
b1 X
b1 b
b10111 $"
1$
#1254
0$
#1273
b11 a
b11 W
b11 M
b10111 C
b11000 $"
b10 b
b10 X
b10 N
b10110 D
1$
#1292
0$
#1311
b11000 C
b100 M
b100 W
b100 a
b10111 D
b11 N
b11 X
b11 b
b11001 $"
1$
#1330
0$
#1349
b101 a
b101 W
b101 M
b11001 C
b11010 $"
b100 b
b100 X
b100 N
b11000 D
1$
#1368
0$
#1387
b11010 C
b110 M
b110 W
b110 a
b11001 D
b101 N
b101 X
b101 b
b11011 $"
1$
#1406
0$
#1425
b111 a
b111 W
b111 M
b11011 C
b11100 $"
b110 b
b110 X
b110 N
b11010 D
1$
#1444
0$
#1463
b11100 C
b1000 M
b1000 W
b1000 a
b11011 D
b111 N
b111 X
b111 b
b11101 $"
1$
#1482
0$
#1501
b1001 a
b1001 W
b1001 M
b11101 C
b11110 $"
b1000 b
b1000 X
b1000 N
b11100 D
1$
#1520
0$
#1539
b11110 C
b1010 M
b1010 W
b1010 a
b11101 D
b1001 N
b1001 X
b1001 b
b11111 $"
1$
#1558
0$
#1577
b1011 a
b1011 W
b1011 M
b11111 C
b100000 $"
b1010 b
b1010 X
b1010 N
b11110 D
1$
#1596
0$
#1615
b100000 C
b1100 M
b1100 W
b1100 a
b11111 D
b1011 N
b1011 X
b1011 b
b100001 $"
1$
#1634
0$
#1653
b1101 a
b1101 W
b1101 M
b100001 C
b100010 $"
b1100 b
b1100 X
b1100 N
b100000 D
1$
#1672
0$
#1691
b100010 C
b1110 M
b1110 W
b1110 a
b100001 D
b1101 N
b1101 X
b1101 b
b100011 $"
1$
#1710
0$
#1729
b1111 a
b1111 W
b1111 M
b100011 C
b100100 $"
b1110 b
b1110 X
b1110 N
b100010 D
1F
1P
1Z
b1111 %
b1111 (
1$
#1748
0$
#1767
b100100 C
b0 M
1H
b0 W
1R
b0 a
1\
b100011 D
b1111 N
1K
b1111 X
1U
b1111 b
1_
b100101 $"
1$
#1786
0$
#1805
b1 a
0\
b1 W
0R
b1 M
0H
b100101 C
b100110 $"
b0 b
1`
b0 X
1V
b0 N
1L
b100100 D
1$
#1824
0$
#1843
b100110 C
b10 M
b10 W
b10 a
b100101 D
b1 N
b1 X
b1 b
b100111 $"
1$
#1862
0$
#1881
b11 a
b11 W
b11 M
b100111 C
b101000 $"
b10 b
b10 X
b10 N
b100110 D
1$
#1900
0$
#1919
b101000 C
b100 M
b100 W
b100 a
b100111 D
b11 N
b11 X
b11 b
b101001 $"
1$
#1938
0$
#1957
b101 a
b101 W
b101 M
b101001 C
b101010 $"
b100 b
b100 X
b100 N
b101000 D
1$
#1976
0$
#1995
b101010 C
b110 M
b110 W
b110 a
b101001 D
b101 N
b101 X
b101 b
b101011 $"
1$
#2014
0$
#2033
b111 a
b111 W
b111 M
b101011 C
b101100 $"
b110 b
b110 X
b110 N
b101010 D
1$
#2052
0$
#2071
b101100 C
b1000 M
b1000 W
b1000 a
b101011 D
b111 N
b111 X
b111 b
b101101 $"
1$
#2090
0$
#2109
b1001 a
b1001 W
b1001 M
b101101 C
b101110 $"
b1000 b
b1000 X
b1000 N
b101100 D
1$
#2128
0$
#2147
b101110 C
b1010 M
b1010 W
b1010 a
b101101 D
b1001 N
b1001 X
b1001 b
b101111 $"
1$
#2166
0$
#2185
b1011 a
b1011 W
b1011 M
b101111 C
b110000 $"
b1010 b
b1010 X
b1010 N
b101110 D
1$
#2204
0$
#2223
b110000 C
b1100 M
b1100 W
b1100 a
b101111 D
b1011 N
b1011 X
b1011 b
b110001 $"
1$
#2242
0$
#2261
b1101 a
b1101 W
b1101 M
b110001 C
b110010 $"
b1100 b
b1100 X
b1100 N
b110000 D
1$
#2280
0$
#2299
b110010 C
b1110 M
b1110 W
b1110 a
b110001 D
b1101 N
b1101 X
b1101 b
b110011 $"
1$
#2318
0$
#2337
b1111 a
b1111 W
b1111 M
b110011 C
b110100 $"
b1110 b
b1110 X
b1110 N
b110010 D
1$
#2356
0$
#2375
b110100 C
b10000 M
b10000 W
b10000 a
b110011 D
b1111 N
b1111 X
b1111 b
b110101 $"
1$
#2394
0$
#2413
b10001 a
b10001 W
b10001 M
b110101 C
b110110 $"
b10000 b
b10000 X
b10000 N
b110100 D
1$
#2432
0$
#2451
b110110 C
b10010 M
b10010 W
b10010 a
b110101 D
b10001 N
b10001 X
b10001 b
b110111 $"
1$
#2470
0$
#2489
b10011 a
b10011 W
b10011 M
b110111 C
b111000 $"
b10010 b
b10010 X
b10010 N
b110110 D
1$
#2508
0$
#2527
b111000 C
b10100 M
b10100 W
b10100 a
b110111 D
b10011 N
b10011 X
b10011 b
b111001 $"
1$
#2546
0$
#2565
b10101 a
b10101 W
b10101 M
b111001 C
b111010 $"
b10100 b
b10100 X
b10100 N
b111000 D
1$
#2584
0$
#2603
b111010 C
b10110 M
b10110 W
b10110 a
b111001 D
b10101 N
b10101 X
b10101 b
b111011 $"
1$
#2622
0$
#2641
b10111 a
b10111 W
b10111 M
b111011 C
b111100 $"
b10110 b
b10110 X
b10110 N
b111010 D
1$
#2660
0$
#2679
b111100 C
b11000 M
b11000 W
b11000 a
b111011 D
b10111 N
b10111 X
b10111 b
b111101 $"
1$
#2698
0$
#2717
b11001 a
b11001 W
b11001 M
b111101 C
b111110 $"
b11000 b
b11000 X
b11000 N
b111100 D
1$
#2736
0$
#2755
b111110 C
b11010 M
b11010 W
b11010 a
b111101 D
b11001 N
b11001 X
b11001 b
b111111 $"
1$
#2774
0$
#2793
b11011 a
b11011 W
b11011 M
b111111 C
b1000000 $"
b11010 b
b11010 X
b11010 N
b111110 D
1$
#2812
0$
#2831
b1000000 C
b11100 M
b11100 W
b11100 a
b111111 D
b11011 N
b11011 X
b11011 b
b1000001 $"
1$
#2850
0$
#2869
b11101 a
b11101 W
b11101 M
b1000001 C
b1000010 $"
b11100 b
b11100 X
b11100 N
b1000000 D
1$
#2888
0$
#2907
b1000010 C
b11110 M
b11110 W
b11110 a
b1000001 D
b11101 N
b11101 X
b11101 b
b1000011 $"
1$
#2926
0$
#2945
b11111 a
b11111 W
b11111 M
b1000011 C
b1000100 $"
b11110 b
b11110 X
b11110 N
b1000010 D
1$
#2964
0$
#2983
b1000100 C
b100000 M
b100000 W
b100000 a
b1000011 D
b11111 N
b11111 X
b11111 b
b1000101 $"
1$
#3002
0$
#3021
b100001 a
b100001 W
b100001 M
b1000101 C
b1000110 $"
b100000 b
b100000 X
b100000 N
b1000100 D
1$
#3040
0$
#3059
b1000110 C
b100010 M
b100010 W
b100010 a
b1000101 D
b100001 N
b100001 X
b100001 b
b1000111 $"
1$
#3078
0$
#3097
b100011 a
b100011 W
b100011 M
b1000111 C
b1001000 $"
b100010 b
b100010 X
b100010 N
b1000110 D
1$
#3116
0$
#3135
b1001000 C
b100100 M
b100100 W
b100100 a
b1000111 D
b100011 N
b100011 X
b100011 b
b1001001 $"
1$
#3154
0$
#3173
b100101 a
b100101 W
b100101 M
b1001001 C
b1001010 $"
b100100 b
b100100 X
b100100 N
b1001000 D
1$
#3192
0$
#3211
b1001010 C
b100110 M
b100110 W
b100110 a
b1001001 D
b100101 N
b100101 X
b100101 b
b1001011 $"
1$
#3230
0$
#3249
b100111 a
b100111 W
b100111 M
b1001011 C
b1001100 $"
b100110 b
b100110 X
b100110 N
b1001010 D
1$
#3268
0$
#3287
b1001100 C
b101000 M
b101000 W
b101000 a
b1001011 D
b100111 N
b100111 X
b100111 b
b1001101 $"
1$
#3306
0$
#3325
b101001 a
b101001 W
b101001 M
b1001101 C
b1001110 $"
b101000 b
b101000 X
b101000 N
b1001100 D
1$
#3344
0$
#3363
b1001110 C
b101010 M
b101010 W
b101010 a
b1001101 D
b101001 N
b101001 X
b101001 b
b1001111 $"
1$
#3382
0$
#3401
b101011 a
b101011 W
b101011 M
b1001111 C
b1010000 $"
b101010 b
b101010 X
b101010 N
b1001110 D
1$
#3420
0$
#3439
b1010000 C
b101100 M
b101100 W
b101100 a
b1001111 D
b101011 N
b101011 X
b101011 b
b1010001 $"
1$
#3458
0$
#3477
b101101 a
b101101 W
b101101 M
b1010001 C
b1010010 $"
b101100 b
b101100 X
b101100 N
b1010000 D
1$
#3496
0$
#3515
b1010010 C
b101110 M
b101110 W
b101110 a
b1010001 D
b101101 N
b101101 X
b101101 b
b1010011 $"
1$
#3534
0$
#3553
b101111 a
b101111 W
b101111 M
b1010011 C
b1010100 $"
b101110 b
b101110 X
b101110 N
b1010010 D
1$
#3572
0$
#3591
b1010100 C
b110000 M
b110000 W
b110000 a
b1010011 D
b101111 N
b101111 X
b101111 b
b1010101 $"
1$
#3610
0$
#3629
b110001 a
b110001 W
b110001 M
b1010101 C
b1010110 $"
b110000 b
b110000 X
b110000 N
b1010100 D
0F
0P
0Z
b1 %
b1 (
1$
#3648
0$
#3667
b1010110 C
b0 M
1H
b0 W
1R
b0 a
1\
b1010101 D
b110001 N
0K
b110001 X
0U
b110001 b
0_
b1010111 $"
1$
#3686
0$
#3705
b1 a
0\
b1 W
0R
b1 M
0H
b1010111 C
b1011000 $"
b0 b
0`
b0 X
0V
b0 N
0L
b1010110 D
1$
#3724
0$
#3743
b1011000 C
b10 M
b10 W
b10 a
b1010111 D
b1 N
b1 X
b1 b
b1011001 $"
1$
#3762
0$
#3781
b11 a
b11 W
b11 M
b1011001 C
b1011010 $"
b10 b
b10 X
b10 N
b1011000 D
1$
#3800
0$
#3819
b1011010 C
b100 M
b100 W
b100 a
b1011001 D
b11 N
b11 X
b11 b
b1011011 $"
1$
#3838
0$
#3857
b101 a
b101 W
b101 M
b1011011 C
b1011100 $"
b100 b
b100 X
b100 N
b1011010 D
1$
#3876
0$
#3895
b1011100 C
b110 M
b110 W
b110 a
b1011011 D
b101 N
b101 X
b101 b
b1011101 $"
1$
#3914
0$
#3933
b111 a
b111 W
b111 M
b1011101 C
b1011110 $"
b110 b
b110 X
b110 N
b1011100 D
1$
#3952
0$
#3971
b1011110 C
b1000 M
b1000 W
b1000 a
b1011101 D
b111 N
b111 X
b111 b
b1011111 $"
1$
#3990
0$
#4009
b1001 a
b1001 W
b1001 M
b1011111 C
b1100000 $"
b1000 b
b1000 X
b1000 N
b1011110 D
1$
#4028
0$
#4047
b1100000 C
b1010 M
b1010 W
b1010 a
b1011111 D
b1001 N
b1001 X
b1001 b
b1100001 $"
1$
#4066
0$
#4085
b1011 a
b1011 W
b1011 M
b1100001 C
b1100010 $"
b1010 b
b1010 X
b1010 N
b1100000 D
1$
#4104
0$
#4123
b1100010 C
b1100 M
b1100 W
b1100 a
b1100001 D
b1011 N
b1011 X
b1011 b
b1100011 $"
1$
#4142
0$
#4161
b1101 a
b1101 W
b1101 M
b1100011 C
b1100100 $"
b1100 b
b1100 X
b1100 N
b1100010 D
1$
#4180
0$
#4199
b1100100 C
b1110 M
b1110 W
b1110 a
b1100011 D
b1101 N
b1101 X
b1101 b
b1100101 $"
1$
#4218
0$
#4237
b1111 a
b1111 W
b1111 M
b1100101 C
b1100110 $"
b1110 b
b1110 X
b1110 N
b1100100 D
1F
1P
1Z
b1111 %
b1111 (
1$
#4256
0$
#4275
b1100110 C
b0 M
1H
b0 W
1R
b0 a
1\
b1100101 D
b1111 N
1K
b1111 X
1U
b1111 b
1_
b1100111 $"
1$
#4294
0$
#4313
b1 a
0\
b1 W
0R
b1 M
0H
b1100111 C
b1101000 $"
b0 b
1`
b0 X
1V
b0 N
1L
b1100110 D
1$
#4332
0$
#4351
b1101000 C
b10 M
b10 W
b10 a
b1100111 D
b1 N
b1 X
b1 b
b1101001 $"
1$
#4370
0$
#4389
b11 a
b11 W
b11 M
b1101001 C
b1101010 $"
b10 b
b10 X
b10 N
b1101000 D
1$
#4408
0$
#4427
b1101010 C
b100 M
b100 W
b100 a
b1101001 D
b11 N
b11 X
b11 b
b1101011 $"
1$
#4446
0$
#4465
b101 a
b101 W
b101 M
b1101011 C
b1101100 $"
b100 b
b100 X
b100 N
b1101010 D
1$
#4484
0$
#4503
b1101100 C
b110 M
b110 W
b110 a
b1101011 D
b101 N
b101 X
b101 b
b1101101 $"
1$
#4522
0$
#4541
b111 a
b111 W
b111 M
b1101101 C
b1101110 $"
b110 b
b110 X
b110 N
b1101100 D
1$
#4560
0$
#4579
b1101110 C
b1000 M
b1000 W
b1000 a
b1101101 D
b111 N
b111 X
b111 b
b1101111 $"
1$
#4598
0$
#4617
b1001 a
b1001 W
b1001 M
b1101111 C
b1110000 $"
b1000 b
b1000 X
b1000 N
b1101110 D
1$
#4636
0$
#4655
b1110000 C
b1010 M
b1010 W
b1010 a
b1101111 D
b1001 N
b1001 X
b1001 b
b1110001 $"
1$
#4674
0$
#4693
b1011 a
b1011 W
b1011 M
b1110001 C
b1110010 $"
b1010 b
b1010 X
b1010 N
b1110000 D
1$
#4712
0$
#4731
b1110010 C
b1100 M
b1100 W
b1100 a
b1110001 D
b1011 N
b1011 X
b1011 b
b1110011 $"
1$
#4750
0$
#4769
b1101 a
b1101 W
b1101 M
b1110011 C
b1110100 $"
b1100 b
b1100 X
b1100 N
b1110010 D
1$
#4788
0$
#4807
b1110100 C
b1110 M
b1110 W
b1110 a
b1110011 D
b1101 N
b1101 X
b1101 b
b1110101 $"
1$
#4826
0$
#4845
b1111 a
b1111 W
b1111 M
b1110101 C
b1110110 $"
b1110 b
b1110 X
b1110 N
b1110100 D
1$
#4864
0$
#4883
b1110110 C
b10000 M
b10000 W
b10000 a
b1110101 D
b1111 N
b1111 X
b1111 b
b1110111 $"
1$
#4902
0$
#4921
b10001 a
b10001 W
b10001 M
b1110111 C
b1111000 $"
b10000 b
b10000 X
b10000 N
b1110110 D
1$
#4940
0$
#4959
b1111000 C
b10010 M
b10010 W
b10010 a
b1110111 D
b10001 N
b10001 X
b10001 b
b1111001 $"
1$
#4978
0$
#4997
b10011 a
b10011 W
b10011 M
b1111001 C
b1111010 $"
b10010 b
b10010 X
b10010 N
b1111000 D
1$
#5016
0$
#5035
b1111010 C
b10100 M
b10100 W
b10100 a
b1111001 D
b10011 N
b10011 X
b10011 b
b1111011 $"
1$
#5054
0$
#5073
b10101 a
b10101 W
b10101 M
b1111011 C
b1111100 $"
b10100 b
b10100 X
b10100 N
b1111010 D
1$
#5092
0$
#5111
b1111100 C
b10110 M
b10110 W
b10110 a
b1111011 D
b10101 N
b10101 X
b10101 b
b1111101 $"
1$
#5130
0$
#5149
b10111 a
b10111 W
b10111 M
b1111101 C
b1111110 $"
b10110 b
b10110 X
b10110 N
b1111100 D
1$
#5168
0$
#5187
b1111110 C
b11000 M
b11000 W
b11000 a
b1111101 D
b10111 N
b10111 X
b10111 b
b1111111 $"
1$
#5206
0$
#5225
b11001 a
b11001 W
b11001 M
b1111111 C
b10000000 $"
b11000 b
b11000 X
b11000 N
b1111110 D
1$
#5244
0$
#5263
b10000000 C
b11010 M
b11010 W
b11010 a
b1111111 D
b11001 N
b11001 X
b11001 b
b10000001 $"
1$
#5282
0$
#5301
b11011 a
b11011 W
b11011 M
b10000001 C
b10000010 $"
b11010 b
b11010 X
b11010 N
b10000000 D
1$
#5320
0$
#5339
b10000010 C
b11100 M
b11100 W
b11100 a
b10000001 D
b11011 N
b11011 X
b11011 b
b10000011 $"
1$
#5358
0$
#5377
b11101 a
b11101 W
b11101 M
b10000011 C
b10000100 $"
b11100 b
b11100 X
b11100 N
b10000010 D
1$
#5396
0$
#5415
b10000100 C
b11110 M
b11110 W
b11110 a
b10000011 D
b11101 N
b11101 X
b11101 b
b10000101 $"
1$
#5434
0$
#5453
b11111 a
b11111 W
b11111 M
b10000101 C
b10000110 $"
b11110 b
b11110 X
b11110 N
b10000100 D
1$
#5472
0$
#5491
b10000110 C
b100000 M
b100000 W
b100000 a
b10000101 D
b11111 N
b11111 X
b11111 b
b10000111 $"
1$
#5510
0$
#5529
b100001 a
b100001 W
b100001 M
b10000111 C
b10001000 $"
b100000 b
b100000 X
b100000 N
b10000110 D
1$
#5548
0$
#5567
b10001000 C
b100010 M
b100010 W
b100010 a
b10000111 D
b100001 N
b100001 X
b100001 b
b10001001 $"
1$
#5586
0$
#5605
b100011 a
b100011 W
b100011 M
b10001001 C
b10001010 $"
b100010 b
b100010 X
b100010 N
b10001000 D
1$
#5624
0$
#5643
b10001010 C
b100100 M
b100100 W
b100100 a
b10001001 D
b100011 N
b100011 X
b100011 b
b10001011 $"
1$
#5662
0$
#5681
b100101 a
b100101 W
b100101 M
b10001011 C
b10001100 $"
b100100 b
b100100 X
b100100 N
b10001010 D
1$
#5700
0$
#5719
b10001100 C
b100110 M
b100110 W
b100110 a
b10001011 D
b100101 N
b100101 X
b100101 b
b10001101 $"
1$
#5738
0$
#5757
b100111 a
b100111 W
b100111 M
b10001101 C
b10001110 $"
b100110 b
b100110 X
b100110 N
b10001100 D
1$
#5776
0$
#5795
b10001110 C
b101000 M
b101000 W
b101000 a
b10001101 D
b100111 N
b100111 X
b100111 b
b10001111 $"
1$
#5814
0$
#5833
b101001 a
b101001 W
b101001 M
b10001111 C
b10010000 $"
b101000 b
b101000 X
b101000 N
b10001110 D
1$
#5852
0$
#5871
b10010000 C
b101010 M
b101010 W
b101010 a
b10001111 D
b101001 N
b101001 X
b101001 b
b10010001 $"
1$
#5890
0$
#5909
b101011 a
b101011 W
b101011 M
b10010001 C
b10010010 $"
b101010 b
b101010 X
b101010 N
b10010000 D
1$
#5928
0$
#5947
b10010010 C
b101100 M
b101100 W
b101100 a
b10010001 D
b101011 N
b101011 X
b101011 b
b10010011 $"
1$
#5966
0$
#5985
b101101 a
b101101 W
b101101 M
b10010011 C
b10010100 $"
b101100 b
b101100 X
b101100 N
b10010010 D
1$
#6004
0$
#6023
b10010100 C
b101110 M
b101110 W
b101110 a
b10010011 D
b101101 N
b101101 X
b101101 b
b10010101 $"
1$
#6042
0$
#6061
b101111 a
b101111 W
b101111 M
b10010101 C
b10010110 $"
b101110 b
b101110 X
b101110 N
b10010100 D
1$
#6080
0$
#6099
b10010110 C
b110000 M
b110000 W
b110000 a
b10010101 D
b101111 N
b101111 X
b101111 b
b10010111 $"
1$
#6118
0$
#6137
b110001 a
b110001 W
b110001 M
b10010111 C
b10011000 $"
b110000 b
b110000 X
b110000 N
b10010110 D
1$
